-- Merging decision tree log ---
manifest
ADDED from /Users/Miteshmac/Desktop/Bingo/app/src/main/AndroidManifest.xml:2:1-29:12
INJECTED from /Users/Miteshmac/Desktop/Bingo/app/src/main/AndroidManifest.xml:2:1-29:12
INJECTED from /Users/Miteshmac/Desktop/Bingo/app/src/main/AndroidManifest.xml:2:1-29:12
INJECTED from /Users/Miteshmac/Desktop/Bingo/app/src/main/AndroidManifest.xml:2:1-29:12
MERGED from [com.android.support:design:28.0.0] /Users/Miteshmac/.gradle/caches/transforms-2/files-2.1/24459997d4fe957784a51da1570aca61/AndroidManifest.xml:17:1-24:12
MERGED from [com.android.support:appcompat-v7:28.0.0] /Users/Miteshmac/.gradle/caches/transforms-2/files-2.1/ba249bf024ecfa6e3b17f0d66ef136df/AndroidManifest.xml:17:1-22:12
MERGED from [com.android.support.constraint:constraint-layout:1.1.3] /Users/Miteshmac/.gradle/caches/transforms-2/files-2.1/2119f5e56f0844a81f23c4c2b4a47a90/AndroidManifest.xml:2:1-11:12
MERGED from [com.android.support:recyclerview-v7:28.0.0] /Users/Miteshmac/.gradle/caches/transforms-2/files-2.1/b3a6e60c8e7d794dd877758b2af39956/AndroidManifest.xml:17:1-22:12
MERGED from [com.android.support:support-fragment:28.0.0] /Users/Miteshmac/.gradle/caches/transforms-2/files-2.1/726e599ebbd76f03d658b8f60659d62c/AndroidManifest.xml:17:1-22:12
MERGED from [com.android.support:animated-vector-drawable:28.0.0] /Users/Miteshmac/.gradle/caches/transforms-2/files-2.1/b6c779b351c6351195b83239630ab12f/AndroidManifest.xml:17:1-22:12
MERGED from [com.android.support:support-core-ui:28.0.0] /Users/Miteshmac/.gradle/caches/transforms-2/files-2.1/83b241f450735f91950bee2ee5a35f9c/AndroidManifest.xml:17:1-22:12
MERGED from [com.android.support:support-core-utils:28.0.0] /Users/Miteshmac/.gradle/caches/transforms-2/files-2.1/131b5519d7f362619a3f671610865a93/AndroidManifest.xml:17:1-22:12
MERGED from [com.android.support:support-vector-drawable:28.0.0] /Users/Miteshmac/.gradle/caches/transforms-2/files-2.1/83be0283cd541eae8be961a613371d8d/AndroidManifest.xml:17:1-22:12
MERGED from [com.android.support:transition:28.0.0] /Users/Miteshmac/.gradle/caches/transforms-2/files-2.1/ed8a6c5917e6599f0a027e54a0ad36e9/AndroidManifest.xml:17:1-22:12
MERGED from [com.android.support:loader:28.0.0] /Users/Miteshmac/.gradle/caches/transforms-2/files-2.1/ad16bc378e0d08e10d2883a52528c3cd/AndroidManifest.xml:17:1-22:12
MERGED from [com.android.support:viewpager:28.0.0] /Users/Miteshmac/.gradle/caches/transforms-2/files-2.1/15ba1ef87d23d0aa274ef04eead66dfc/AndroidManifest.xml:17:1-22:12
MERGED from [com.android.support:coordinatorlayout:28.0.0] /Users/Miteshmac/.gradle/caches/transforms-2/files-2.1/838acd457fe791b68e54e4f67565efcd/AndroidManifest.xml:17:1-22:12
MERGED from [com.android.support:drawerlayout:28.0.0] /Users/Miteshmac/.gradle/caches/transforms-2/files-2.1/30ec3385bfa135469c5c3ad5681c9c92/AndroidManifest.xml:17:1-22:12
MERGED from [com.android.support:slidingpanelayout:28.0.0] /Users/Miteshmac/.gradle/caches/transforms-2/files-2.1/057885296ab804bc6781adc2fc4d44f6/AndroidManifest.xml:17:1-22:12
MERGED from [com.android.support:customview:28.0.0] /Users/Miteshmac/.gradle/caches/transforms-2/files-2.1/621352e6a5ff3414f814fab41079b6e2/AndroidManifest.xml:17:1-22:12
MERGED from [com.android.support:swiperefreshlayout:28.0.0] /Users/Miteshmac/.gradle/caches/transforms-2/files-2.1/d47700b2e503cb39274d08fac21fdf68/AndroidManifest.xml:17:1-22:12
MERGED from [com.android.support:asynclayoutinflater:28.0.0] /Users/Miteshmac/.gradle/caches/transforms-2/files-2.1/abd769b793380b277bfa02763599d17a/AndroidManifest.xml:17:1-22:12
MERGED from [com.android.support:support-compat:28.0.0] /Users/Miteshmac/.gradle/caches/transforms-2/files-2.1/f20fe6871a9063f74665f036398de1c6/AndroidManifest.xml:17:1-24:12
MERGED from [com.android.support:versionedparcelable:28.0.0] /Users/Miteshmac/.gradle/caches/transforms-2/files-2.1/ca75efe322d0e8695bbf874d124a948e/AndroidManifest.xml:17:1-25:12
MERGED from [com.android.support:cursoradapter:28.0.0] /Users/Miteshmac/.gradle/caches/transforms-2/files-2.1/ed87f6dbcac1334b5d1fdf21bbb02d27/AndroidManifest.xml:17:1-22:12
MERGED from [com.android.support:cardview-v7:28.0.0] /Users/Miteshmac/.gradle/caches/transforms-2/files-2.1/efa87982d6c185279057748a00ee8d61/AndroidManifest.xml:17:1-22:12
MERGED from [android.arch.lifecycle:runtime:1.1.1] /Users/Miteshmac/.gradle/caches/transforms-2/files-2.1/770f105cd7ce73bcce6d521bb3311760/AndroidManifest.xml:17:1-22:12
MERGED from [com.android.support:documentfile:28.0.0] /Users/Miteshmac/.gradle/caches/transforms-2/files-2.1/0d3e4043e58deabf7e46b6314c975282/AndroidManifest.xml:17:1-22:12
MERGED from [com.android.support:localbroadcastmanager:28.0.0] /Users/Miteshmac/.gradle/caches/transforms-2/files-2.1/119db6a11c05fd0f62e010174b4cd9a2/AndroidManifest.xml:17:1-22:12
MERGED from [com.android.support:print:28.0.0] /Users/Miteshmac/.gradle/caches/transforms-2/files-2.1/0666bbb923c4cf19fd4ea1d51bad9347/AndroidManifest.xml:17:1-22:12
MERGED from [android.arch.lifecycle:viewmodel:1.1.1] /Users/Miteshmac/.gradle/caches/transforms-2/files-2.1/27495e0b4526e48db81de1fb525e145b/AndroidManifest.xml:17:1-22:12
MERGED from [com.android.support:interpolator:28.0.0] /Users/Miteshmac/.gradle/caches/transforms-2/files-2.1/c932263ac3e9ca8fa025cea716a7fcee/AndroidManifest.xml:17:1-22:12
MERGED from [android.arch.lifecycle:livedata:1.1.1] /Users/Miteshmac/.gradle/caches/transforms-2/files-2.1/c71adb0df8eb05c6e3a4c09da69c79af/AndroidManifest.xml:17:1-22:12
MERGED from [android.arch.lifecycle:livedata-core:1.1.1] /Users/Miteshmac/.gradle/caches/transforms-2/files-2.1/eec5b792fc5bd75c6cadb7ac726c0715/AndroidManifest.xml:17:1-22:12
MERGED from [android.arch.core:runtime:1.1.1] /Users/Miteshmac/.gradle/caches/transforms-2/files-2.1/0100cb1653d0a309dfcbdf1ce260d343/AndroidManifest.xml:17:1-22:12
INJECTED from /Users/Miteshmac/Desktop/Bingo/app/src/main/AndroidManifest.xml:2:1-29:12
INJECTED from /Users/Miteshmac/Desktop/Bingo/app/src/main/AndroidManifest.xml:2:1-29:12
INJECTED from /Users/Miteshmac/Desktop/Bingo/app/src/main/AndroidManifest.xml:2:1-29:12
	package
		ADDED from /Users/Miteshmac/Desktop/Bingo/app/src/main/AndroidManifest.xml:3:5-36
		INJECTED from /Users/Miteshmac/Desktop/Bingo/app/src/main/AndroidManifest.xml
		INJECTED from /Users/Miteshmac/Desktop/Bingo/app/src/main/AndroidManifest.xml
	android:versionName
		INJECTED from /Users/Miteshmac/Desktop/Bingo/app/src/main/AndroidManifest.xml
		ADDED from /Users/Miteshmac/Desktop/Bingo/app/src/main/AndroidManifest.xml:2:1-29:12
		INJECTED from /Users/Miteshmac/Desktop/Bingo/app/src/main/AndroidManifest.xml
	android:versionCode
		INJECTED from /Users/Miteshmac/Desktop/Bingo/app/src/main/AndroidManifest.xml
		ADDED from /Users/Miteshmac/Desktop/Bingo/app/src/main/AndroidManifest.xml:2:1-29:12
		INJECTED from /Users/Miteshmac/Desktop/Bingo/app/src/main/AndroidManifest.xml
	xmlns:android
		ADDED from /Users/Miteshmac/Desktop/Bingo/app/src/main/AndroidManifest.xml:2:11-69
application
ADDED from /Users/Miteshmac/Desktop/Bingo/app/src/main/AndroidManifest.xml:5:5-27:19
MERGED from [com.android.support:design:28.0.0] /Users/Miteshmac/.gradle/caches/transforms-2/files-2.1/24459997d4fe957784a51da1570aca61/AndroidManifest.xml:22:5-20
MERGED from [com.android.support:design:28.0.0] /Users/Miteshmac/.gradle/caches/transforms-2/files-2.1/24459997d4fe957784a51da1570aca61/AndroidManifest.xml:22:5-20
MERGED from [com.android.support.constraint:constraint-layout:1.1.3] /Users/Miteshmac/.gradle/caches/transforms-2/files-2.1/2119f5e56f0844a81f23c4c2b4a47a90/AndroidManifest.xml:9:5-20
MERGED from [com.android.support.constraint:constraint-layout:1.1.3] /Users/Miteshmac/.gradle/caches/transforms-2/files-2.1/2119f5e56f0844a81f23c4c2b4a47a90/AndroidManifest.xml:9:5-20
MERGED from [com.android.support:support-compat:28.0.0] /Users/Miteshmac/.gradle/caches/transforms-2/files-2.1/f20fe6871a9063f74665f036398de1c6/AndroidManifest.xml:22:5-94
MERGED from [com.android.support:support-compat:28.0.0] /Users/Miteshmac/.gradle/caches/transforms-2/files-2.1/f20fe6871a9063f74665f036398de1c6/AndroidManifest.xml:22:5-94
MERGED from [com.android.support:versionedparcelable:28.0.0] /Users/Miteshmac/.gradle/caches/transforms-2/files-2.1/ca75efe322d0e8695bbf874d124a948e/AndroidManifest.xml:22:5-23:19
MERGED from [com.android.support:versionedparcelable:28.0.0] /Users/Miteshmac/.gradle/caches/transforms-2/files-2.1/ca75efe322d0e8695bbf874d124a948e/AndroidManifest.xml:22:5-23:19
	android:appComponentFactory
		ADDED from [com.android.support:support-compat:28.0.0] /Users/Miteshmac/.gradle/caches/transforms-2/files-2.1/f20fe6871a9063f74665f036398de1c6/AndroidManifest.xml:22:18-91
	android:supportsRtl
		ADDED from /Users/Miteshmac/Desktop/Bingo/app/src/main/AndroidManifest.xml:10:9-35
	android:label
		ADDED from /Users/Miteshmac/Desktop/Bingo/app/src/main/AndroidManifest.xml:8:9-41
	android:roundIcon
		ADDED from /Users/Miteshmac/Desktop/Bingo/app/src/main/AndroidManifest.xml:9:9-54
	android:icon
		ADDED from /Users/Miteshmac/Desktop/Bingo/app/src/main/AndroidManifest.xml:7:9-43
	android:allowBackup
		ADDED from /Users/Miteshmac/Desktop/Bingo/app/src/main/AndroidManifest.xml:6:9-35
	android:theme
		ADDED from /Users/Miteshmac/Desktop/Bingo/app/src/main/AndroidManifest.xml:11:9-40
activity#com.techathalon.bingo.GenerateCard
ADDED from /Users/Miteshmac/Desktop/Bingo/app/src/main/AndroidManifest.xml:12:9-59
	android:name
		ADDED from /Users/Miteshmac/Desktop/Bingo/app/src/main/AndroidManifest.xml:12:19-47
activity#com.techathalon.bingo.HomeActivity
ADDED from /Users/Miteshmac/Desktop/Bingo/app/src/main/AndroidManifest.xml:13:9-19:20
	android:name
		ADDED from /Users/Miteshmac/Desktop/Bingo/app/src/main/AndroidManifest.xml:13:19-47
intent-filter#action:name:android.intent.action.MAIN+category:name:android.intent.category.LAUNCHER
ADDED from /Users/Miteshmac/Desktop/Bingo/app/src/main/AndroidManifest.xml:14:13-18:29
action#android.intent.action.MAIN
ADDED from /Users/Miteshmac/Desktop/Bingo/app/src/main/AndroidManifest.xml:15:17-69
	android:name
		ADDED from /Users/Miteshmac/Desktop/Bingo/app/src/main/AndroidManifest.xml:15:25-66
category#android.intent.category.LAUNCHER
ADDED from /Users/Miteshmac/Desktop/Bingo/app/src/main/AndroidManifest.xml:17:17-77
	android:name
		ADDED from /Users/Miteshmac/Desktop/Bingo/app/src/main/AndroidManifest.xml:17:27-74
activity#com.techathalon.bingo.MainActivity
ADDED from /Users/Miteshmac/Desktop/Bingo/app/src/main/AndroidManifest.xml:20:9-26:20
	android:name
		ADDED from /Users/Miteshmac/Desktop/Bingo/app/src/main/AndroidManifest.xml:20:19-47
uses-sdk
INJECTED from /Users/Miteshmac/Desktop/Bingo/app/src/main/AndroidManifest.xml reason: use-sdk injection requested
INJECTED from /Users/Miteshmac/Desktop/Bingo/app/src/main/AndroidManifest.xml
INJECTED from /Users/Miteshmac/Desktop/Bingo/app/src/main/AndroidManifest.xml
MERGED from [com.android.support:design:28.0.0] /Users/Miteshmac/.gradle/caches/transforms-2/files-2.1/24459997d4fe957784a51da1570aca61/AndroidManifest.xml:20:5-44
MERGED from [com.android.support:design:28.0.0] /Users/Miteshmac/.gradle/caches/transforms-2/files-2.1/24459997d4fe957784a51da1570aca61/AndroidManifest.xml:20:5-44
MERGED from [com.android.support:appcompat-v7:28.0.0] /Users/Miteshmac/.gradle/caches/transforms-2/files-2.1/ba249bf024ecfa6e3b17f0d66ef136df/AndroidManifest.xml:20:5-44
MERGED from [com.android.support:appcompat-v7:28.0.0] /Users/Miteshmac/.gradle/caches/transforms-2/files-2.1/ba249bf024ecfa6e3b17f0d66ef136df/AndroidManifest.xml:20:5-44
MERGED from [com.android.support.constraint:constraint-layout:1.1.3] /Users/Miteshmac/.gradle/caches/transforms-2/files-2.1/2119f5e56f0844a81f23c4c2b4a47a90/AndroidManifest.xml:5:5-7:41
MERGED from [com.android.support.constraint:constraint-layout:1.1.3] /Users/Miteshmac/.gradle/caches/transforms-2/files-2.1/2119f5e56f0844a81f23c4c2b4a47a90/AndroidManifest.xml:5:5-7:41
MERGED from [com.android.support:recyclerview-v7:28.0.0] /Users/Miteshmac/.gradle/caches/transforms-2/files-2.1/b3a6e60c8e7d794dd877758b2af39956/AndroidManifest.xml:20:5-44
MERGED from [com.android.support:recyclerview-v7:28.0.0] /Users/Miteshmac/.gradle/caches/transforms-2/files-2.1/b3a6e60c8e7d794dd877758b2af39956/AndroidManifest.xml:20:5-44
MERGED from [com.android.support:support-fragment:28.0.0] /Users/Miteshmac/.gradle/caches/transforms-2/files-2.1/726e599ebbd76f03d658b8f60659d62c/AndroidManifest.xml:20:5-44
MERGED from [com.android.support:support-fragment:28.0.0] /Users/Miteshmac/.gradle/caches/transforms-2/files-2.1/726e599ebbd76f03d658b8f60659d62c/AndroidManifest.xml:20:5-44
MERGED from [com.android.support:animated-vector-drawable:28.0.0] /Users/Miteshmac/.gradle/caches/transforms-2/files-2.1/b6c779b351c6351195b83239630ab12f/AndroidManifest.xml:20:5-44
MERGED from [com.android.support:animated-vector-drawable:28.0.0] /Users/Miteshmac/.gradle/caches/transforms-2/files-2.1/b6c779b351c6351195b83239630ab12f/AndroidManifest.xml:20:5-44
MERGED from [com.android.support:support-core-ui:28.0.0] /Users/Miteshmac/.gradle/caches/transforms-2/files-2.1/83b241f450735f91950bee2ee5a35f9c/AndroidManifest.xml:20:5-44
MERGED from [com.android.support:support-core-ui:28.0.0] /Users/Miteshmac/.gradle/caches/transforms-2/files-2.1/83b241f450735f91950bee2ee5a35f9c/AndroidManifest.xml:20:5-44
MERGED from [com.android.support:support-core-utils:28.0.0] /Users/Miteshmac/.gradle/caches/transforms-2/files-2.1/131b5519d7f362619a3f671610865a93/AndroidManifest.xml:20:5-44
MERGED from [com.android.support:support-core-utils:28.0.0] /Users/Miteshmac/.gradle/caches/transforms-2/files-2.1/131b5519d7f362619a3f671610865a93/AndroidManifest.xml:20:5-44
MERGED from [com.android.support:support-vector-drawable:28.0.0] /Users/Miteshmac/.gradle/caches/transforms-2/files-2.1/83be0283cd541eae8be961a613371d8d/AndroidManifest.xml:20:5-44
MERGED from [com.android.support:support-vector-drawable:28.0.0] /Users/Miteshmac/.gradle/caches/transforms-2/files-2.1/83be0283cd541eae8be961a613371d8d/AndroidManifest.xml:20:5-44
MERGED from [com.android.support:transition:28.0.0] /Users/Miteshmac/.gradle/caches/transforms-2/files-2.1/ed8a6c5917e6599f0a027e54a0ad36e9/AndroidManifest.xml:20:5-44
MERGED from [com.android.support:transition:28.0.0] /Users/Miteshmac/.gradle/caches/transforms-2/files-2.1/ed8a6c5917e6599f0a027e54a0ad36e9/AndroidManifest.xml:20:5-44
MERGED from [com.android.support:loader:28.0.0] /Users/Miteshmac/.gradle/caches/transforms-2/files-2.1/ad16bc378e0d08e10d2883a52528c3cd/AndroidManifest.xml:20:5-44
MERGED from [com.android.support:loader:28.0.0] /Users/Miteshmac/.gradle/caches/transforms-2/files-2.1/ad16bc378e0d08e10d2883a52528c3cd/AndroidManifest.xml:20:5-44
MERGED from [com.android.support:viewpager:28.0.0] /Users/Miteshmac/.gradle/caches/transforms-2/files-2.1/15ba1ef87d23d0aa274ef04eead66dfc/AndroidManifest.xml:20:5-44
MERGED from [com.android.support:viewpager:28.0.0] /Users/Miteshmac/.gradle/caches/transforms-2/files-2.1/15ba1ef87d23d0aa274ef04eead66dfc/AndroidManifest.xml:20:5-44
MERGED from [com.android.support:coordinatorlayout:28.0.0] /Users/Miteshmac/.gradle/caches/transforms-2/files-2.1/838acd457fe791b68e54e4f67565efcd/AndroidManifest.xml:20:5-44
MERGED from [com.android.support:coordinatorlayout:28.0.0] /Users/Miteshmac/.gradle/caches/transforms-2/files-2.1/838acd457fe791b68e54e4f67565efcd/AndroidManifest.xml:20:5-44
MERGED from [com.android.support:drawerlayout:28.0.0] /Users/Miteshmac/.gradle/caches/transforms-2/files-2.1/30ec3385bfa135469c5c3ad5681c9c92/AndroidManifest.xml:20:5-44
MERGED from [com.android.support:drawerlayout:28.0.0] /Users/Miteshmac/.gradle/caches/transforms-2/files-2.1/30ec3385bfa135469c5c3ad5681c9c92/AndroidManifest.xml:20:5-44
MERGED from [com.android.support:slidingpanelayout:28.0.0] /Users/Miteshmac/.gradle/caches/transforms-2/files-2.1/057885296ab804bc6781adc2fc4d44f6/AndroidManifest.xml:20:5-44
MERGED from [com.android.support:slidingpanelayout:28.0.0] /Users/Miteshmac/.gradle/caches/transforms-2/files-2.1/057885296ab804bc6781adc2fc4d44f6/AndroidManifest.xml:20:5-44
MERGED from [com.android.support:customview:28.0.0] /Users/Miteshmac/.gradle/caches/transforms-2/files-2.1/621352e6a5ff3414f814fab41079b6e2/AndroidManifest.xml:20:5-44
MERGED from [com.android.support:customview:28.0.0] /Users/Miteshmac/.gradle/caches/transforms-2/files-2.1/621352e6a5ff3414f814fab41079b6e2/AndroidManifest.xml:20:5-44
MERGED from [com.android.support:swiperefreshlayout:28.0.0] /Users/Miteshmac/.gradle/caches/transforms-2/files-2.1/d47700b2e503cb39274d08fac21fdf68/AndroidManifest.xml:20:5-44
MERGED from [com.android.support:swiperefreshlayout:28.0.0] /Users/Miteshmac/.gradle/caches/transforms-2/files-2.1/d47700b2e503cb39274d08fac21fdf68/AndroidManifest.xml:20:5-44
MERGED from [com.android.support:asynclayoutinflater:28.0.0] /Users/Miteshmac/.gradle/caches/transforms-2/files-2.1/abd769b793380b277bfa02763599d17a/AndroidManifest.xml:20:5-44
MERGED from [com.android.support:asynclayoutinflater:28.0.0] /Users/Miteshmac/.gradle/caches/transforms-2/files-2.1/abd769b793380b277bfa02763599d17a/AndroidManifest.xml:20:5-44
MERGED from [com.android.support:support-compat:28.0.0] /Users/Miteshmac/.gradle/caches/transforms-2/files-2.1/f20fe6871a9063f74665f036398de1c6/AndroidManifest.xml:20:5-44
MERGED from [com.android.support:support-compat:28.0.0] /Users/Miteshmac/.gradle/caches/transforms-2/files-2.1/f20fe6871a9063f74665f036398de1c6/AndroidManifest.xml:20:5-44
MERGED from [com.android.support:versionedparcelable:28.0.0] /Users/Miteshmac/.gradle/caches/transforms-2/files-2.1/ca75efe322d0e8695bbf874d124a948e/AndroidManifest.xml:20:5-44
MERGED from [com.android.support:versionedparcelable:28.0.0] /Users/Miteshmac/.gradle/caches/transforms-2/files-2.1/ca75efe322d0e8695bbf874d124a948e/AndroidManifest.xml:20:5-44
MERGED from [com.android.support:cursoradapter:28.0.0] /Users/Miteshmac/.gradle/caches/transforms-2/files-2.1/ed87f6dbcac1334b5d1fdf21bbb02d27/AndroidManifest.xml:20:5-44
MERGED from [com.android.support:cursoradapter:28.0.0] /Users/Miteshmac/.gradle/caches/transforms-2/files-2.1/ed87f6dbcac1334b5d1fdf21bbb02d27/AndroidManifest.xml:20:5-44
MERGED from [com.android.support:cardview-v7:28.0.0] /Users/Miteshmac/.gradle/caches/transforms-2/files-2.1/efa87982d6c185279057748a00ee8d61/AndroidManifest.xml:20:5-44
MERGED from [com.android.support:cardview-v7:28.0.0] /Users/Miteshmac/.gradle/caches/transforms-2/files-2.1/efa87982d6c185279057748a00ee8d61/AndroidManifest.xml:20:5-44
MERGED from [android.arch.lifecycle:runtime:1.1.1] /Users/Miteshmac/.gradle/caches/transforms-2/files-2.1/770f105cd7ce73bcce6d521bb3311760/AndroidManifest.xml:20:5-44
MERGED from [android.arch.lifecycle:runtime:1.1.1] /Users/Miteshmac/.gradle/caches/transforms-2/files-2.1/770f105cd7ce73bcce6d521bb3311760/AndroidManifest.xml:20:5-44
MERGED from [com.android.support:documentfile:28.0.0] /Users/Miteshmac/.gradle/caches/transforms-2/files-2.1/0d3e4043e58deabf7e46b6314c975282/AndroidManifest.xml:20:5-44
MERGED from [com.android.support:documentfile:28.0.0] /Users/Miteshmac/.gradle/caches/transforms-2/files-2.1/0d3e4043e58deabf7e46b6314c975282/AndroidManifest.xml:20:5-44
MERGED from [com.android.support:localbroadcastmanager:28.0.0] /Users/Miteshmac/.gradle/caches/transforms-2/files-2.1/119db6a11c05fd0f62e010174b4cd9a2/AndroidManifest.xml:20:5-44
MERGED from [com.android.support:localbroadcastmanager:28.0.0] /Users/Miteshmac/.gradle/caches/transforms-2/files-2.1/119db6a11c05fd0f62e010174b4cd9a2/AndroidManifest.xml:20:5-44
MERGED from [com.android.support:print:28.0.0] /Users/Miteshmac/.gradle/caches/transforms-2/files-2.1/0666bbb923c4cf19fd4ea1d51bad9347/AndroidManifest.xml:20:5-44
MERGED from [com.android.support:print:28.0.0] /Users/Miteshmac/.gradle/caches/transforms-2/files-2.1/0666bbb923c4cf19fd4ea1d51bad9347/AndroidManifest.xml:20:5-44
MERGED from [android.arch.lifecycle:viewmodel:1.1.1] /Users/Miteshmac/.gradle/caches/transforms-2/files-2.1/27495e0b4526e48db81de1fb525e145b/AndroidManifest.xml:20:5-44
MERGED from [android.arch.lifecycle:viewmodel:1.1.1] /Users/Miteshmac/.gradle/caches/transforms-2/files-2.1/27495e0b4526e48db81de1fb525e145b/AndroidManifest.xml:20:5-44
MERGED from [com.android.support:interpolator:28.0.0] /Users/Miteshmac/.gradle/caches/transforms-2/files-2.1/c932263ac3e9ca8fa025cea716a7fcee/AndroidManifest.xml:20:5-44
MERGED from [com.android.support:interpolator:28.0.0] /Users/Miteshmac/.gradle/caches/transforms-2/files-2.1/c932263ac3e9ca8fa025cea716a7fcee/AndroidManifest.xml:20:5-44
MERGED from [android.arch.lifecycle:livedata:1.1.1] /Users/Miteshmac/.gradle/caches/transforms-2/files-2.1/c71adb0df8eb05c6e3a4c09da69c79af/AndroidManifest.xml:20:5-44
MERGED from [android.arch.lifecycle:livedata:1.1.1] /Users/Miteshmac/.gradle/caches/transforms-2/files-2.1/c71adb0df8eb05c6e3a4c09da69c79af/AndroidManifest.xml:20:5-44
MERGED from [android.arch.lifecycle:livedata-core:1.1.1] /Users/Miteshmac/.gradle/caches/transforms-2/files-2.1/eec5b792fc5bd75c6cadb7ac726c0715/AndroidManifest.xml:20:5-44
MERGED from [android.arch.lifecycle:livedata-core:1.1.1] /Users/Miteshmac/.gradle/caches/transforms-2/files-2.1/eec5b792fc5bd75c6cadb7ac726c0715/AndroidManifest.xml:20:5-44
MERGED from [android.arch.core:runtime:1.1.1] /Users/Miteshmac/.gradle/caches/transforms-2/files-2.1/0100cb1653d0a309dfcbdf1ce260d343/AndroidManifest.xml:20:5-44
MERGED from [android.arch.core:runtime:1.1.1] /Users/Miteshmac/.gradle/caches/transforms-2/files-2.1/0100cb1653d0a309dfcbdf1ce260d343/AndroidManifest.xml:20:5-44
INJECTED from /Users/Miteshmac/Desktop/Bingo/app/src/main/AndroidManifest.xml
INJECTED from /Users/Miteshmac/Desktop/Bingo/app/src/main/AndroidManifest.xml
	android:targetSdkVersion
		INJECTED from /Users/Miteshmac/Desktop/Bingo/app/src/main/AndroidManifest.xml
		ADDED from /Users/Miteshmac/Desktop/Bingo/app/src/main/AndroidManifest.xml
		INJECTED from /Users/Miteshmac/Desktop/Bingo/app/src/main/AndroidManifest.xml
	android:minSdkVersion
		INJECTED from /Users/Miteshmac/Desktop/Bingo/app/src/main/AndroidManifest.xml
		ADDED from /Users/Miteshmac/Desktop/Bingo/app/src/main/AndroidManifest.xml
		INJECTED from /Users/Miteshmac/Desktop/Bingo/app/src/main/AndroidManifest.xml
